<svg xmlns="http://www.w3.org/2000/svg" width="62" height="62" viewBox="0 0 62 62">
    <g fill="#888F98" fill-rule="evenodd">
        <path d="M30.88 0C13.853 0 0 13.853 0 30.88s13.853 30.88 30.88 30.88 30.88-13.853 30.88-30.88S47.908 0 30.88 0zm0 59.09c-15.554 0-28.209-12.655-28.209-28.21 0-15.555 12.655-28.21 28.21-28.21 15.554 0 28.208 12.655 28.208 28.21 0 15.555-12.654 28.21-28.209 28.21z"/>
        <path d="M46.813 30.468H32.144V14.443a2.114 2.114 0 1 0-4.227 0V32.58c0 1.168.947 2.114 2.114 2.114h16.782a2.114 2.114 0 1 0 0-4.227z"/>
    </g>
</svg>
