<svg xmlns="http://www.w3.org/2000/svg" width="35" height="35" viewBox="0 0 35 35">
    <g fill="none" fill-rule="evenodd">
        <circle cx="17.5" cy="17.5" r="17.5" fill="#4C8AFE"/>
        <path fill="#FFF" d="M18 13c0-.552-.444-1-1-1-.552 0-1 .444-1 1v4h-4c-.552 0-1 .444-1 1 0 .552.444 1 1 1h4v4c0 .552.444 1 1 1 .552 0 1-.444 1-1v-4h4c.552 0 1-.444 1-1 0-.552-.444-1-1-1h-4v-4z"/>
    </g>
</svg>
